{
  "commitMessage": "vault backup: {{date}}",
  "autoCommitMessage": "vault backup: {{date}}",
  "commitDateFormat": "YYYY-MM-DD HH:mm:ss",
  "autoSaveInterval": 0,
  "autoPullInterval": 0,
  "autoPullOnBoot": true,
  "disablePush": false,
  "pullBeforePush": true,
  "disablePopups": false,
  "listChangedFilesInMessageBody": true,
  "showStatusBar": true,
  "updateSubmodules": false,
  "syncMethod": "merge",
  "gitPath": "",
  "customMessageOnAutoBackup": false,
  "autoBackupAfterFileChange": false,
  "treeStructure": false,
  "refreshSourceControl": true,
  "basePath": ""
}